{
  "project_info": {
    "project_number": "449562893263",
    "firebase_url": "https://deluge-94c7f.firebaseio.com",
    "project_id": "deluge-94c7f",
    "storage_bucket": "deluge-94c7f.appspot.com"
  },
  "client": [
    {
      "client_info": {
        "mobilesdk_app_id": "1:449562893263:android:fbdb365cefeed240",
        "android_client_info": {
          "package_name": "com.blazingapps.asus.deluge"
        }
      },
      "oauth_client": [
        {
          "client_id": "449562893263-ihm9fhcgv7728pl60ms0jsj5d4q4ek2r.apps.googleusercontent.com",
          "client_type": 1,
          "android_info": {
            "package_name": "com.blazingapps.asus.deluge",
            "certificate_hash": "b7f2dcf8046442d7d287a1f97eaadea8270835e4"
          }
        },
        {
          "client_id": "449562893263-4ueidl1gho0h53d1af34q52n4tculgmm.apps.googleusercontent.com",
          "client_type": 3
        }
      ],
      "api_key": [
        {
          "current_key": "AIzaSyAs1RYtsEwtFe3WpgXqSCxBR7NCiNjOQw8"
        }
      ],
      "services": {
        "analytics_service": {
          "status": 1
        },
        "appinvite_service": {
          "status": 2,
          "other_platform_oauth_client": [
            {
              "client_id": "449562893263-4ueidl1gho0h53d1af34q52n4tculgmm.apps.googleusercontent.com",
              "client_type": 3
            }
          ]
        },
        "ads_service": {
          "status": 2
        }
      }
    }
  ],
  "configuration_version": "1"
}